How to Make Panel Maps
…
## "manual" way
# make a panel map, with equal weight splits
pm_df <- code_dict %>%
  group_by(HS1_6d) %>%
  mutate(n_dest = n(),
         HS1_split = 1/n_dest) %>%
  select(-n_dest)

## conformr way with de-duplication internal
# OR use the built-in to_equal_panel_map() function
panel_map <- conformr::make_panel_map_equal(code_dict, HS1_6d, NAICS_6d)

# check that it is a panel map
panel_map
#> # A tibble: 8,297 × 3
#>    HS1_6d NAICS_6d split_HS1_6d
#>    <chr>  <chr>           <dbl>
#>  1 010111 112920            1  
#>  2 010119 112920            1  
#>  3 010120 112920            1  
#>  4 010210 11211X            1  
#>  5 010290 11211X            0.5
#>  6 010290 112990            0.5
#>  7 010310 112210            1  
#>  8 010391 112210            1  
#>  9 010392 112210            1  
#> 10 010410 112410            1  
#> # … with 8,287 more rows
…
