…
agg_x
```

Since aggregation involves the one-to-one transfer of values between `adm1` and `ctr` prior to the collapsing the `ctr` groups, we simple add weights of one to form a valid crossmap:

```{r}
agg_xmap <- agg_x |>
  dplyr::mutate(link = 1) |>
  as_xmap_df(from = adm1, to = ctr, weights = link)

#> xmap_df:
#> recode and collapse
#> (adm1 -> ctr) BY link
#> # A tibble: 21 × 3
#>    adm1   ctr    link
#>    <chr>  <chr> <dbl>
#>  1 AU-NSW AU        1
#>  2 AU-QLD AU        1
#>  3 AU-SA  AU        1
#>  4 AU-TAS AU        1
#>  5 AU-VIC AU        1
#>  6 AU-WA  AU        1
#>  7 AU-ACT AU        1
#>  8 AU-NT  AU        1
#>  9 CA-AB  CA        1
#> 10 CA-BC  CA        1
#> # … with 11 more rows
```
…
