Making Valid Crossmaps • xmap
…
Recall that we need one row per relation between the source
(adm1) and target (ctr) nomenclature. Thus we
split the string list into a vector, and then unnest the values by
country.

agg_x <- adm1_list |> 
  dplyr::mutate(adm1 = stringr::str_split(adm1, ", ")) |>
  tidyr::unnest(cols = c(adm1))

agg_x

## # A tibble: 21 × 2
##    ctr   adm1  
##    <chr> <chr> 
##  1 AU    AU-NSW
##  2 AU    AU-QLD
##  3 AU    AU-SA 
##  4 AU    AU-TAS
##  5 AU    AU-VIC
##  6 AU    AU-WA 
##  7 AU    AU-ACT
##  8 AU    AU-NT 
##  9 CA    CA-AB 
## 10 CA    CA-BC 
## # … with 11 more rows

Since aggregation involves the one-to-one transfer of values between
adm1 and ctr prior to the collapsing the
ctr groups, we simple add weights of one to form a valid
crossmap:

agg_xmap <- agg_x |>
  dplyr::mutate(link = 1) |>
  as_xmap_df(from = adm1, to = ctr, weights = link)

#> xmap_df:
#> recode and collapse
#> (adm1 -> ctr) BY link
#> # A tibble: 21 × 3
#>    adm1   ctr    link
#>    <chr>  <chr> <dbl>
#>  1 AU-NSW AU        1
#>  2 AU-QLD AU        1
#>  3 AU-SA  AU        1
#>  4 AU-TAS AU        1
#>  5 AU-VIC AU        1
#>  6 AU-WA  AU        1
#>  7 AU-ACT AU        1
#>  8 AU-NT  AU        1
#>  9 CA-AB  CA        1
#> 10 CA-BC  CA        1
#> # … with 11 more rows
…
